{
  "formatVersion": 1,
  "database": {
    "version": 14,
    "identityHash": "ceea3e166bdd5c9a3e2fb50ed6275c15",
    "entities": [
      {
        "tableName": "recent_contact",
        "createSql": "CREATE TABLE IF NOT EXISTS `${TABLE_NAME}` (`rawContactId` TEXT NOT NULL, `name` TEXT NOT NULL, `email` TEXT NOT NULL, `photoId` TEXT, `lastTimeUsed` INTEGER NOT NULL, PRIMARY KEY(`rawContactId`))",
        "fields": [
          {
            "fieldPath": "rawContactId",
            "columnName": "rawContactId",
            "affinity": "TEXT",
            "notNull": true
          },
          {
            "fieldPath": "name",
            "columnName": "name",
            "affinity": "TEXT",
            "notNull": true
          },
          {
            "fieldPath": "email",
            "columnName": "email",
            "affinity": "TEXT",
            "notNull": true
          },
          {
            "fieldPath": "photoId",
            "columnName": "photoId",
            "affinity": "TEXT",
            "notNull": false
          },
          {
            "fieldPath": "lastTimeUsed",
            "columnName": "lastTimeUsed",
            "affinity": "INTEGER",
            "notNull": true
          }
        ],
        "primaryKey": {
          "columnNames": [
            "rawContactId"
          ],
          "autoGenerate": false
        },
        "indices": [],
        "foreignKeys": []
      },
      {
        "tableName": "recent_custom_contact",
        "createSql": "CREATE TABLE IF NOT EXISTS `${TABLE_NAME}` (`email` TEXT NOT NULL, `lastTimeUsed` INTEGER NOT NULL, PRIMARY KEY(`email`))",
        "fields": [
          {
            "fieldPath": "email",
            "columnName": "email",
            "affinity": "TEXT",
            "notNull": true
          },
          {
            "fieldPath": "lastTimeUsed",
            "columnName": "lastTimeUsed",
            "affinity": "INTEGER",
            "notNull": true
          }
        ],
        "primaryKey": {
          "columnNames": [
            "email"
          ],
          "autoGenerate": false
        },
        "indices": [],
        "foreignKeys": []
      },
      {
        "tableName": "user",
        "createSql": "CREATE TABLE IF NOT EXISTS `${TABLE_NAME}` (`id` INTEGER NOT NULL, `email` TEXT NOT NULL, `googleId` TEXT, `enabled` INTEGER NOT NULL, `anonymous` INTEGER NOT NULL, `havingGoogleRefreshToken` INTEGER NOT NULL, `havingGoogleAccessToken` INTEGER NOT NULL, PRIMARY KEY(`id`))",
        "fields": [
          {
            "fieldPath": "id",
            "columnName": "id",
            "affinity": "INTEGER",
            "notNull": true
          },
          {
            "fieldPath": "email",
            "columnName": "email",
            "affinity": "TEXT",
            "notNull": true
          },
          {
            "fieldPath": "googleId",
            "columnName": "googleId",
            "affinity": "TEXT",
            "notNull": false
          },
          {
            "fieldPath": "enabled",
            "columnName": "enabled",
            "affinity": "INTEGER",
            "notNull": true
          },
          {
            "fieldPath": "anonymous",
            "columnName": "anonymous",
            "affinity": "INTEGER",
            "notNull": true
          },
          {
            "fieldPath": "havingGoogleRefreshToken",
            "columnName": "havingGoogleRefreshToken",
            "affinity": "INTEGER",
            "notNull": true
          },
          {
            "fieldPath": "havingGoogleAccessToken",
            "columnName": "havingGoogleAccessToken",
            "affinity": "INTEGER",
            "notNull": true
          }
        ],
        "primaryKey": {
          "columnNames": [
            "id"
          ],
          "autoGenerate": false
        },
        "indices": [],
        "foreignKeys": []
      },
      {
        "tableName": "meeting",
        "createSql": "CREATE TABLE IF NOT EXISTS `${TABLE_NAME}` (`id` INTEGER NOT NULL, `ownerId` INTEGER NOT NULL, `token` TEXT NOT NULL, `description` TEXT NOT NULL, `durationMinutes` INTEGER NOT NULL, `type` TEXT NOT NULL, `isTaken` INTEGER NOT NULL, `calendarGoogleid` TEXT NOT NULL, `location` TEXT NOT NULL, `canUserConfirm` INTEGER, PRIMARY KEY(`id`))",
        "fields": [
          {
            "fieldPath": "id",
            "columnName": "id",
            "affinity": "INTEGER",
            "notNull": true
          },
          {
            "fieldPath": "ownerId",
            "columnName": "ownerId",
            "affinity": "INTEGER",
            "notNull": true
          },
          {
            "fieldPath": "token",
            "columnName": "token",
            "affinity": "TEXT",
            "notNull": true
          },
          {
            "fieldPath": "description",
            "columnName": "description",
            "affinity": "TEXT",
            "notNull": true
          },
          {
            "fieldPath": "durationMinutes",
            "columnName": "durationMinutes",
            "affinity": "INTEGER",
            "notNull": true
          },
          {
            "fieldPath": "type",
            "columnName": "type",
            "affinity": "TEXT",
            "notNull": true
          },
          {
            "fieldPath": "isTaken",
            "columnName": "isTaken",
            "affinity": "INTEGER",
            "notNull": true
          },
          {
            "fieldPath": "calendarGoogleid",
            "columnName": "calendarGoogleid",
            "affinity": "TEXT",
            "notNull": true
          },
          {
            "fieldPath": "location",
            "columnName": "location",
            "affinity": "TEXT",
            "notNull": true
          },
          {
            "fieldPath": "canUserConfirm",
            "columnName": "canUserConfirm",
            "affinity": "INTEGER",
            "notNull": false
          }
        ],
        "primaryKey": {
          "columnNames": [
            "id"
          ],
          "autoGenerate": false
        },
        "indices": [],
        "foreignKeys": []
      },
      {
        "tableName": "meeting_date",
        "createSql": "CREATE TABLE IF NOT EXISTS `${TABLE_NAME}` (`id` INTEGER NOT NULL, `meetingId` INTEGER NOT NULL, `startDate` INTEGER NOT NULL, `endDate` INTEGER NOT NULL, `userId` INTEGER, PRIMARY KEY(`id`))",
        "fields": [
          {
            "fieldPath": "id",
            "columnName": "id",
            "affinity": "INTEGER",
            "notNull": true
          },
          {
            "fieldPath": "meetingId",
            "columnName": "meetingId",
            "affinity": "INTEGER",
            "notNull": true
          },
          {
            "fieldPath": "startDate",
            "columnName": "startDate",
            "affinity": "INTEGER",
            "notNull": true
          },
          {
            "fieldPath": "endDate",
            "columnName": "endDate",
            "affinity": "INTEGER",
            "notNull": true
          },
          {
            "fieldPath": "userId",
            "columnName": "userId",
            "affinity": "INTEGER",
            "notNull": false
          }
        ],
        "primaryKey": {
          "columnNames": [
            "id"
          ],
          "autoGenerate": false
        },
        "indices": [],
        "foreignKeys": []
      },
      {
        "tableName": "meeting_date_user",
        "createSql": "CREATE TABLE IF NOT EXISTS `${TABLE_NAME}` (`id` INTEGER NOT NULL, `userId` INTEGER NOT NULL, `meetingsHasDateId` INTEGER NOT NULL, `meetingId` INTEGER NOT NULL, `calendarGoogleid` TEXT, `email` TEXT, `name` TEXT, PRIMARY KEY(`id`))",
        "fields": [
          {
            "fieldPath": "id",
            "columnName": "id",
            "affinity": "INTEGER",
            "notNull": true
          },
          {
            "fieldPath": "userId",
            "columnName": "userId",
            "affinity": "INTEGER",
            "notNull": true
          },
          {
            "fieldPath": "meetingsHasDateId",
            "columnName": "meetingsHasDateId",
            "affinity": "INTEGER",
            "notNull": true
          },
          {
            "fieldPath": "meetingId",
            "columnName": "meetingId",
            "affinity": "INTEGER",
            "notNull": true
          },
          {
            "fieldPath": "calendarGoogleid",
            "columnName": "calendarGoogleid",
            "affinity": "TEXT",
            "notNull": false
          },
          {
            "fieldPath": "email",
            "columnName": "email",
            "affinity": "TEXT",
            "notNull": false
          },
          {
            "fieldPath": "name",
            "columnName": "name",
            "affinity": "TEXT",
            "notNull": false
          }
        ],
        "primaryKey": {
          "columnNames": [
            "id"
          ],
          "autoGenerate": false
        },
        "indices": [],
        "foreignKeys": []
      },
      {
        "tableName": "recent_location",
        "createSql": "CREATE TABLE IF NOT EXISTS `${TABLE_NAME}` (`id` TEXT NOT NULL, `name` TEXT NOT NULL, `address` TEXT NOT NULL, `latLng` TEXT NOT NULL, `viewport` TEXT, `lastTimeUsed` INTEGER NOT NULL, PRIMARY KEY(`id`))",
        "fields": [
          {
            "fieldPath": "id",
            "columnName": "id",
            "affinity": "TEXT",
            "notNull": true
          },
          {
            "fieldPath": "name",
            "columnName": "name",
            "affinity": "TEXT",
            "notNull": true
          },
          {
            "fieldPath": "address",
            "columnName": "address",
            "affinity": "TEXT",
            "notNull": true
          },
          {
            "fieldPath": "latLng",
            "columnName": "latLng",
            "affinity": "TEXT",
            "notNull": true
          },
          {
            "fieldPath": "viewport",
            "columnName": "viewport",
            "affinity": "TEXT",
            "notNull": false
          },
          {
            "fieldPath": "lastTimeUsed",
            "columnName": "lastTimeUsed",
            "affinity": "INTEGER",
            "notNull": true
          }
        ],
        "primaryKey": {
          "columnNames": [
            "id"
          ],
          "autoGenerate": false
        },
        "indices": [],
        "foreignKeys": []
      },
      {
        "tableName": "recent_custom_location",
        "createSql": "CREATE TABLE IF NOT EXISTS `${TABLE_NAME}` (`name` TEXT NOT NULL, `lastTimeUsed` INTEGER NOT NULL, PRIMARY KEY(`name`))",
        "fields": [
          {
            "fieldPath": "name",
            "columnName": "name",
            "affinity": "TEXT",
            "notNull": true
          },
          {
            "fieldPath": "lastTimeUsed",
            "columnName": "lastTimeUsed",
            "affinity": "INTEGER",
            "notNull": true
          }
        ],
        "primaryKey": {
          "columnNames": [
            "name"
          ],
          "autoGenerate": false
        },
        "indices": [],
        "foreignKeys": []
      }
    ],
    "setupQueries": [
      "CREATE TABLE IF NOT EXISTS room_master_table (id INTEGER PRIMARY KEY,identity_hash TEXT)",
      "INSERT OR REPLACE INTO room_master_table (id,identity_hash) VALUES(42, \"ceea3e166bdd5c9a3e2fb50ed6275c15\")"
    ]
  }
}