{
  "formatVersion": 1,
  "database": {
    "version": 8,
    "identityHash": "64e03c0c31b7858c617fa22540bb1b31",
    "entities": [
      {
        "tableName": "recent_contact",
        "createSql": "CREATE TABLE IF NOT EXISTS `${TABLE_NAME}` (`rawContactId` TEXT NOT NULL, `name` TEXT NOT NULL, `email` TEXT NOT NULL, `photoId` TEXT, `lastTimeUsed` INTEGER NOT NULL, PRIMARY KEY(`rawContactId`))",
        "fields": [
          {
            "fieldPath": "rawContactId",
            "columnName": "rawContactId",
            "affinity": "TEXT",
            "notNull": true
          },
          {
            "fieldPath": "name",
            "columnName": "name",
            "affinity": "TEXT",
            "notNull": true
          },
          {
            "fieldPath": "email",
            "columnName": "email",
            "affinity": "TEXT",
            "notNull": true
          },
          {
            "fieldPath": "photoId",
            "columnName": "photoId",
            "affinity": "TEXT",
            "notNull": false
          },
          {
            "fieldPath": "lastTimeUsed",
            "columnName": "lastTimeUsed",
            "affinity": "INTEGER",
            "notNull": true
          }
        ],
        "primaryKey": {
          "columnNames": [
            "rawContactId"
          ],
          "autoGenerate": false
        },
        "indices": [],
        "foreignKeys": []
      },
      {
        "tableName": "recent_custom_contact",
        "createSql": "CREATE TABLE IF NOT EXISTS `${TABLE_NAME}` (`email` TEXT NOT NULL, `lastTimeUsed` INTEGER NOT NULL, PRIMARY KEY(`email`))",
        "fields": [
          {
            "fieldPath": "email",
            "columnName": "email",
            "affinity": "TEXT",
            "notNull": true
          },
          {
            "fieldPath": "lastTimeUsed",
            "columnName": "lastTimeUsed",
            "affinity": "INTEGER",
            "notNull": true
          }
        ],
        "primaryKey": {
          "columnNames": [
            "email"
          ],
          "autoGenerate": false
        },
        "indices": [],
        "foreignKeys": []
      },
      {
        "tableName": "meeting",
        "createSql": "CREATE TABLE IF NOT EXISTS `${TABLE_NAME}` (`id` INTEGER NOT NULL, `ownerId` INTEGER NOT NULL, `token` TEXT NOT NULL, `description` TEXT NOT NULL, `durationMinutes` INTEGER NOT NULL, `type` TEXT NOT NULL, `isTaken` INTEGER NOT NULL, `calendarGoogleid` TEXT NOT NULL, `location` TEXT NOT NULL, PRIMARY KEY(`id`))",
        "fields": [
          {
            "fieldPath": "id",
            "columnName": "id",
            "affinity": "INTEGER",
            "notNull": true
          },
          {
            "fieldPath": "ownerId",
            "columnName": "ownerId",
            "affinity": "INTEGER",
            "notNull": true
          },
          {
            "fieldPath": "token",
            "columnName": "token",
            "affinity": "TEXT",
            "notNull": true
          },
          {
            "fieldPath": "description",
            "columnName": "description",
            "affinity": "TEXT",
            "notNull": true
          },
          {
            "fieldPath": "durationMinutes",
            "columnName": "durationMinutes",
            "affinity": "INTEGER",
            "notNull": true
          },
          {
            "fieldPath": "type",
            "columnName": "type",
            "affinity": "TEXT",
            "notNull": true
          },
          {
            "fieldPath": "isTaken",
            "columnName": "isTaken",
            "affinity": "INTEGER",
            "notNull": true
          },
          {
            "fieldPath": "calendarGoogleid",
            "columnName": "calendarGoogleid",
            "affinity": "TEXT",
            "notNull": true
          },
          {
            "fieldPath": "location",
            "columnName": "location",
            "affinity": "TEXT",
            "notNull": true
          }
        ],
        "primaryKey": {
          "columnNames": [
            "id"
          ],
          "autoGenerate": false
        },
        "indices": [],
        "foreignKeys": []
      },
      {
        "tableName": "meeting_date",
        "createSql": "CREATE TABLE IF NOT EXISTS `${TABLE_NAME}` (`id` INTEGER NOT NULL, `meetingId` INTEGER NOT NULL, `startDate` TEXT NOT NULL, `endDate` TEXT NOT NULL, `userId` INTEGER, PRIMARY KEY(`id`))",
        "fields": [
          {
            "fieldPath": "id",
            "columnName": "id",
            "affinity": "INTEGER",
            "notNull": true
          },
          {
            "fieldPath": "meetingId",
            "columnName": "meetingId",
            "affinity": "INTEGER",
            "notNull": true
          },
          {
            "fieldPath": "startDate",
            "columnName": "startDate",
            "affinity": "TEXT",
            "notNull": true
          },
          {
            "fieldPath": "endDate",
            "columnName": "endDate",
            "affinity": "TEXT",
            "notNull": true
          },
          {
            "fieldPath": "userId",
            "columnName": "userId",
            "affinity": "INTEGER",
            "notNull": false
          }
        ],
        "primaryKey": {
          "columnNames": [
            "id"
          ],
          "autoGenerate": false
        },
        "indices": [],
        "foreignKeys": []
      },
      {
        "tableName": "meeting_date_user",
        "createSql": "CREATE TABLE IF NOT EXISTS `${TABLE_NAME}` (`id` INTEGER NOT NULL, `userId` INTEGER NOT NULL, `meetingsHasDateId` INTEGER NOT NULL, `meetingId` INTEGER NOT NULL, `calendarGoogleid` TEXT NOT NULL, `email` TEXT NOT NULL, `name` TEXT NOT NULL, PRIMARY KEY(`id`))",
        "fields": [
          {
            "fieldPath": "id",
            "columnName": "id",
            "affinity": "INTEGER",
            "notNull": true
          },
          {
            "fieldPath": "userId",
            "columnName": "userId",
            "affinity": "INTEGER",
            "notNull": true
          },
          {
            "fieldPath": "meetingsHasDateId",
            "columnName": "meetingsHasDateId",
            "affinity": "INTEGER",
            "notNull": true
          },
          {
            "fieldPath": "meetingId",
            "columnName": "meetingId",
            "affinity": "INTEGER",
            "notNull": true
          },
          {
            "fieldPath": "calendarGoogleid",
            "columnName": "calendarGoogleid",
            "affinity": "TEXT",
            "notNull": true
          },
          {
            "fieldPath": "email",
            "columnName": "email",
            "affinity": "TEXT",
            "notNull": true
          },
          {
            "fieldPath": "name",
            "columnName": "name",
            "affinity": "TEXT",
            "notNull": true
          }
        ],
        "primaryKey": {
          "columnNames": [
            "id"
          ],
          "autoGenerate": false
        },
        "indices": [],
        "foreignKeys": []
      }
    ],
    "setupQueries": [
      "CREATE TABLE IF NOT EXISTS room_master_table (id INTEGER PRIMARY KEY,identity_hash TEXT)",
      "INSERT OR REPLACE INTO room_master_table (id,identity_hash) VALUES(42, \"64e03c0c31b7858c617fa22540bb1b31\")"
    ]
  }
}